6 - Después de Análisis Rasch: Análisis descriptivo
…
table_weightedpct(
  df = df_adults_noNA,
  vars_ids = "PSU",
  vars_strata = "strata",
  vars_weights = "weight",
  formula_vars = paste0("EF", 1:12),
  formula_vars_levels = 1:5,
  by_vars = "disability_cat",
  spread_key = NULL,
  spread_value = "prop",
  arrange_vars = NULL,
  willfilter = NULL
  )
#> # A tibble: 236 x 4
#> # Groups:   disability_cat, item [48]
#>    disability_cat item  resp   prop
#>    <ord>          <ord> <fct> <dbl>
#>  1 No             EF1   1     42.1 
#>  2 No             EF1   2     15.8 
#>  3 No             EF1   3     15.2 
#>  4 No             EF1   4     12.4 
#>  5 No             EF1   5     14.6 
#>  6 No             EF2   1     54.0 
#>  7 No             EF2   2     13.3 
#>  8 No             EF2   3     22.5 
#>  9 No             EF2   4      4.67
#> 10 No             EF2   5      5.55
#> # … with 226 more rows
…
table_weightedpct(
  df = df_adults_noNA,
  vars_ids = "PSU",
  vars_strata = "strata",
  vars_weights = "weight",
  formula_vars = paste0("EF", 1:12),
  formula_vars_levels = 1:5,
  by_vars = "disability_cat",
  spread_key = "disability_cat",
  spread_value = "prop",
  arrange_vars = NULL,
  willfilter = NULL
  )
#> # A tibble: 60 x 6
#> # Groups:   item [12]
#>    item  resp     No  Mild Moderate Severe
#>    <ord> <fct> <dbl> <dbl>    <dbl>  <dbl>
#>  1 EF1   1     42.1  47.5     43.4   46.6 
#>  2 EF1   2     15.8  15.3     17.2   11.9 
#>  3 EF1   3     15.2  14.2     14.3   15.0 
#>  4 EF1   4     12.4   9.62    11.2   10.4 
#>  5 EF1   5     14.6  13.3     13.8   16.1 
#>  6 EF2   1     54.0  58.2     59.2   54.4 
#>  7 EF2   2     13.3  11.3     10.2   11.0 
#>  8 EF2   3     22.5  19.4     19.8   20.7 
#>  9 EF2   4      4.67  5.72     5.59   7.68
#> 10 EF2   5      5.55  5.29     5.13   6.25
#> # … with 50 more rows
…
table_weightedpct(
  df = df_adults_noNA,
  vars_ids = "PSU",
  vars_strata = "strata",
  vars_weights = "weight",
  formula_vars = paste0("EF", 1:12),
  formula_vars_levels = 1:5,
  by_vars = c("disability_cat", "sex"),
  spread_key = "disability_cat",
  spread_value = "prop",
  arrange_vars = NULL,
  willfilter = TRUE,
  resp == 5
  )
#> # A tibble: 24 x 7
#> # Groups:   sex, item [24]
#>    sex    item  resp     No  Mild Moderate Severe
#>    <fct>  <ord> <fct> <dbl> <dbl>    <dbl>  <dbl>
#>  1 Female EF1   5     13.2  14.7     13.1   15.4 
#>  2 Female EF2   5      7.44  6.21     6.18   6.94
#>  3 Female EF3   5      4.60  6.32     4.02   4.62
#>  4 Female EF4   5      3.19  3.20     3.00   2.34
#>  5 Female EF5   5      8.61 13.1      9.77  10.3 
#>  6 Female EF6   5      3.25  3.76     2.29   2.89
#>  7 Female EF7   5      4.44  4.12     2.76   2.34
#>  8 Female EF8   5      2.83  1.63     1.88   2.87
#>  9 Female EF9   5      5.50  3.76     5.51   6.40
#> 10 Female EF10  5     11.1   9.91     6.41   9.62
#> # … with 14 more rows
…
table_weightedpct(
  df = df_adults_noNA,
  vars_ids = "PSU",
  vars_strata = "strata",
  vars_weights = "weight",
  formula_vars = paste0("EF", 1:12),
  formula_vars_levels = 1:5,
  by_vars = c("disability_cat", "sex"),
  spread_key = "resp",
  spread_value = "prop",
  arrange_vars = NULL,
  willfilter = FALSE,
  disability_cat, sex, item, problems = `4`+`5`
  )
#> # A tibble: 96 x 4
#> # Groups:   disability_cat, sex, item [96]
#>    disability_cat sex    item  problems
#>    <ord>          <fct>  <ord>    <dbl>
#>  1 No             Female EF1      27.2 
#>  2 No             Female EF2      11.6 
#>  3 No             Female EF3       8.53
#>  4 No             Female EF4       5.96
#>  5 No             Female EF5      18.5 
#>  6 No             Female EF6       8.12
#>  7 No             Female EF7      11.1 
#>  8 No             Female EF8       7.23
#>  9 No             Female EF9      14.7 
#> 10 No             Female EF10     21.6 
#> # … with 86 more rows
…
  df = df_adults_noNA,
  vars_ids = "PSU",
  vars_strata = "strata",
  vars_weights = "weight",
  formula_vars = paste0("EF", 1:12),
  formula_vars_levels = 1:5,
  by_vars = c("disability_cat", "sex"),
  spread_key = "resp",
  spread_value = "prop",
  arrange_vars = NULL,
  willfilter = FALSE,
  disability_cat, sex, item, problems = `4`+`5`
  ) %>% 
    spread(key = disability_cat, value = problems)
#> # A tibble: 24 x 6
#> # Groups:   sex, item [24]
#>    sex    item     No  Mild Moderate Severe
#>    <fct>  <ord> <dbl> <dbl>    <dbl>  <dbl>
#>  1 Female EF1   27.2  25.0     22.2   25.2 
#>  2 Female EF2   11.6  11.2     11.4   13.8 
#>  3 Female EF3    8.53 11.6      7.00   9.36
#>  4 Female EF4    5.96  4.69     6.35   4.37
#>  5 Female EF5   18.5  24.3     17.8   21.8 
#>  6 Female EF6    8.12  8.72     5.06   5.33
#>  7 Female EF7   11.1   7.58     9.06   8.69
#>  8 Female EF8    7.23  4.48     5.59   5.97
#>  9 Female EF9   14.7  10.5     13.7   15.2 
#> 10 Female EF10  21.6  19.7     22.6   20.6 
#> # … with 14 more rows
…
